		{
			"id": "itemIDnum",
			"headers": "Authorization: IPC {{auth-dca}}\nININ-Session: {{sess-id}}\nContent-Type: application/json\n",
			"url": "{{server_url_dca}}/api/v1/processautomation/flows/definitions/{{flow-id}}/commands/activate",
			"preRequestScript": "",
			"pathVariables": {},
			"method": "POST",
			"data": [],
			"dataMode": "raw",
			"version": 2,
			"tests": "tests[\"NULL Deactivate Flow\"] = responseCode.code === 200;",
			"currentHelper": "normal",
			"helperAttributes": {},
			"time": 1431537387553,
			"name": "Deactivate Flow",
			"description": "",
			"collectionId": "00000000-aaaa-0000-0000-0000000000collectionNumber",
			"responses": [],
			"synced": false,
			"rawModeData": "{\r\n    \"activated\":\"false\"\r\n}"
		},