		{
			"id": "itemIDnum",
			"headers": "Authorization: IPC {{auth-dca}}\nININ-Session: {{sess-id}}\nContent-Type: application/json\n",
			"url": "{{server_url_dca}}/api/v1/processautomation/workitems/instances/commands/search",
			"preRequestScript": "",
			"pathVariables": {},
			"method": "POST",
			"data": [],
			"dataMode": "raw",
			"version": 2,
			"tests": "if (responseCode.code >= 200 && responseCode.code <= 299) {\r\n        var data = JSON.parse(responseBody);\r\n        if (data.total === 1 && data.entities[0].definitionId === environment.temp-id){\r\n            tests[\"38224 API - Get All Launched Flows Belonging To Locked Flow Definition\"] = true;\r\n        }\r\n        else {\r\n            tests[\"38224 API - Get All Launched Flows Belonging To Locked Flow Definition\"] = false;\r\n        }\r\n}\r\n",
			"currentHelper": "normal",
			"helperAttributes": {},
			"time": 1434994622179,
			"name": "workItem_Get_Instances",
			"description": "",
			"collectionId": "00000000-aaaa-0000-0000-0000000000collectionNumber",
			"synced": false,
			"rawModeData": "{\r\n    \"filters\": [\r\n    {\r\n        \"name\": \"flowConfigIdVersion.id\",\r\n        \"type\": \"STRING\",\r\n        \"operator\": \"EQUALS\",\r\n        \"values\": [\r\n            \"e88db9fb-aaa0-46f8-81d5-4a30e323bdfa\"\r\n        ]\r\n    }\r\n    ]\r\n}"
		},