		{
			"id": "itemIDnum",
			"headers": "Content-Type: application/json; charset=utf8\nToken: {{tcdbv2_session_id}}\n",
			"url": "http://tcdb.inin.com/tcdbv2/api/testcases/{{test_case_id}}/{{test_case_version}}/Executions",
			"preRequestScript": "",
			"pathVariables": {},
			"method": "POST",
			"data": [],
			"dataMode": "raw",
			"version": 2,
			"tests": "",
			"currentHelper": "normal",
			"helperAttributes": {},
			"time": 1434467218867,
			"name": "TC_EXECUTOR",
			"description": "Build=Test\nArchitecture=DCA",
			"collectionId": "00000000-aaaa-0000-0000-0000000000collectionNumber",
			"responses": [],
			"synced": false,
			"rawModeData": "{{tc_executor}}"
		},