		{
			"id": "itemIDnum",
			"name": "Flow_Get_Base_byID",
			"dataMode": "params",
			"data": [],
			"rawModeData": null,
			"descriptionFormat": null,
			"description": "",
			"headers": "Authorization: IPC {{auth-dca}}\nININ-Session: {{sess-id}}\n",
			"method": "GET",
			"pathVariables": {},
			"url": "{{server_url_dca}}/api/v1/processautomation/flows/definitions/{{flow-id}}",
			"preRequestScript": "",
			"tests": "",
			"version": 2,
			"currentHelper": "normal",
			"helperAttributes": "{}",
			"folder": null,
			"collectionId": "00000000-aaaa-0000-0000-0000000000collectionNumber"
		},