		{
			"id": "itemIDnum",
			"headers": "Authorization: IPC {{auth-dca}}\nININ-Session: {{sess-id}}\n",
			"url": "{{server_url_dca}}/api/v1/processautomation/flows/definitions",
			"preRequestScript": "",
			"pathVariables": {},
			"method": "POST",
			"data": [],
			"dataMode": "raw",
			"version": 2,
			"tests": "if (responseCode.code >= 200 && responseCode.code <= 299) {\r\n        var data = JSON.parse(responseBody);\r\n        if (data.id) {\r\n                postman.setEnvironmentVariable(\"flow-id\", data.id);\r\n                tests[\"NULL Create Base Flow\"] = responseCode.code === 200;\r\n        }\r\n        else {\r\n                tests[\"id found\"] = false;\r\n        }\r\n}\r\nelse {\r\n        if (responseCode.code >= 400 && responseCode.code <= 499) {\r\n                tests[\"Response Code is Incorrect Range!\"] = false;\r\n        }\r\n        if (responseCode.code >= 500 && responseCode.code <= 599) {\r\n                tests[\"Response Code is Incorrect Range!\"] = false;\r\n        }\r\n        if (responseCode.code >= 600 || responseCode.code < 200 ) {\r\n                tests[\"Response Code is Incorrect Range!\"] = false;\r\n        }\r\n}",
			"currentHelper": "normal",
			"helperAttributes": {},
			"time": 1432670223266,
			"name": "Create Base Flow",
			"description": "",
			"collectionId": "00000000-aaaa-0000-0000-0000000000collectionNumber",
			"responses": [],
			"synced": false,
			"rawModeData": "{       \"flowType\" : \"Workflow\", \r\n        \"name\" : \"myFlowName\", \r\n        \"description\" : \"myFlowDescription\"\r\n}"
		},