		{
			"id": "itemIDnum",
			"headers": "Authorization: IPC {{auth-dca}}\nININ-Session: {{sess-id}}\n",
			"url": "{{server_url_dca}}/api/v1/processautomation/flows/definitions/{{flow-id}}/versions",
			"preRequestScript": "",
			"pathVariables": {},
			"method": "POST",
			"data": [],
			"dataMode": "raw",
			"version": 2,
			"tests": "if (responseCode.code >= 200 && responseCode.code <= 299) {\r\n        tests[\"NULL Save Flow\"] = responseCode.code === 200;\r\n        var data = JSON.parse(responseBody);\r\n        if (data.version) {\r\n                postman.setEnvironmentVariable(\"flow-version\", data.version);\r\n        }\r\n        else {\r\n                tests[\"Version Found\"] = false;\r\n        }\r\n        if (data.flowDefinitionUri) {\r\n                postman.setEnvironmentVariable(\"current_flowDefinitionUri\", data.flowDefinitionUri);\r\n        }\r\n        else{\r\n                postman.setEnvironmentVariable(\"current_flowDefinitionUri\", null);\r\n        }\r\n}\r\nelse {\r\n        if (responseCode.code >= 400 && responseCode.code <= 499) {\r\n                tests[\"Response Code is Incorrect Range!\"] = false;\r\n        }\r\n        if (responseCode.code >= 500 && responseCode.code <= 599) {\r\n                tests[\"Response Code is Incorrect Range!\"] = false;\r\n        }\r\n        if (responseCode.code >= 600 || responseCode.code < 200 ) {\r\n                tests[\"Response Code is Incorrect Range!\"] = false;\r\n        }\r\n}",
			"currentHelper": "normal",
			"helperAttributes": {},
			"time": 1436370109186,
			"name": "CreateVersionedFlow",
			"description": "",
			"collectionId": "00000000-aaaa-0000-0000-0000000000collectionNumber",
			"responses": [],
			"synced": false,
			"rawModeData": "{\"This is my flow2\":\"SomeFlowData2\"}"
		},